[  
    {  
        "Question":"Carl and the Passions changed band name to what",
        "Answer":"Beach Boys"
    },
    {  
        "Question":"How many rings on the Olympic flag",
        "Answer":"Five"
    },
    {  
        "Question":"What colour is vermilion a shade of",
        "Answer":"Red"
    },
    {  
        "Question":"King Zog ruled which country",
        "Answer":"Albania"
    },
    {  
        "Question":"What colour is Spock's blood",
        "Answer":"Green"
    },
    {  
        "Question":"Where in your body is your patella",
        "Answer":"Knee"
    },
    {  
        "Question":"Where can you find London bridge today",
        "Answer":"Arizona"
    },
    {  
        "Question":"What spirit is mixed with ginger beer in a Moscow mule",
        "Answer":"Vodka"
    },
    {  
        "Question":"Who was the first man in space",
        "Answer":"Yuri Gagarin"
    },
    {  
        "Question":"What would you do with a Yashmak",
        "Answer":"Wear it"
    },
    {  
        "Question":"Who betrayed Jesus to the Romans",
        "Answer":"Judas Escariot"
    },
    {  
        "Question":"Which animal lays eggs",
        "Answer":"Duck billed platypus"
    },
    {  
        "Question":"On television what was Flipper",
        "Answer":"Dolphin"
    },
    {  
        "Question":"Who's band was The Quarrymen",
        "Answer":"John Lenon"
    },
    {  
        "Question":"Which was the most successful Grand National horse",
        "Answer":"Red Rum"
    },
    {  
        "Question":"Who starred as the Six Million Dollar Man",
        "Answer":"Lee Majors"
    },
    {  
        "Question":"In the song Waltzing Matilda - What is a Jumbuck",
        "Answer":"Sheep"
    },
    {  
        "Question":"Who was Dan Dare's greatest enemy in the Eagle",
        "Answer":"Mekon"
    },
    {  
        "Question":"What is Dick Grayson better known as",
        "Answer":"Robin"
    },
    {  
        "Question":"What was given on the fourth day of Christmas",
        "Answer":"Calling birds"
    },
    {  
        "Question":"What was Skippy ( on TV )",
        "Answer":"The bush kangaroo"
    },
    {  
        "Question":"What does a funambulist do",
        "Answer":"Tightrope walker"
    },
    {  
        "Question":"What is the name of Dennis the Menace's dog",
        "Answer":"Gnasher"
    },
    {  
        "Question":"What are bactrians and dromedaries",
        "Answer":"Camels"
    },
    {  
        "Question":"Who played The Fugitive",
        "Answer":"David Jason"
    },
    {  
        "Question":"Who was the King of Swing",
        "Answer":"Benny Goodman"
    },
    {  
        "Question":"Who was the first man to fly across the channel",
        "Answer":"Louis Bleriot"
    },
    {  
        "Question":"Who starred as Rocky Balboa",
        "Answer":"Sylvester Stallone"
    },
    {  
        "Question":"In which war was the charge of the Light Brigade",
        "Answer":"Crimean"
    },
    {  
        "Question":"Who invented the television",
        "Answer":"John Logie Baird"
    },
    {  
        "Question":"Who would use a mashie niblick",
        "Answer":"Golfer"
    },
    {  
        "Question":"In the song who killed Cock Robin",
        "Answer":"Sparrow"
    },
    {  
        "Question":"What do deciduous trees do",
        "Answer":"Lose their leaves in winter"
    },
    {  
        "Question":"In golf what name is given to the No 3 wood",
        "Answer":"Spoon"
    },
    {  
        "Question":"If you has caries who would you consult",
        "Answer":"Dentist"
    },
    {  
        "Question":"What other name is Mellor’s famously known by",
        "Answer":"Lady Chatterlys Lover"
    },
    {  
        "Question":"What did Jack Horner pull from his pie",
        "Answer":"Plum"
    },
    {  
        "Question":"How many feet in a fathom",
        "Answer":"Six"
    },
    {  
        "Question":"which film had song Springtime for Hitler",
        "Answer":"The Producers"
    },
    {  
        "Question":"Name the legless fighter pilot of ww2",
        "Answer":"Douglas Bader"
    },
    {  
        "Question":"What was the name of inn in Treasure Island",
        "Answer":"Admiral Benbow"
    },
    {  
        "Question":"What was Erich Weiss better known as",
        "Answer":"Harry Houdini"
    },
    {  
        "Question":"Who sailed in the Nina - Pinta and Santa Maria",
        "Answer":"Christopher Columbus"
    },
    {  
        "Question":"Which leader died in St Helena",
        "Answer":"Napoleon Bonaparte"
    },
    {  
        "Question":"Who wrote Gone with the Wind",
        "Answer":"Margaret Mitchell"
    },
    {  
        "Question":"What does ring a ring a roses refer to",
        "Answer":"The Black Death"
    },
    {  
        "Question":"Whose nose grew when he told a lie",
        "Answer":"Pinocchio"
    },
    {  
        "Question":"Who has won the most Oscars",
        "Answer":"Walt Disney"
    },
    {  
        "Question":"What would a Scotsman do with a spurtle",
        "Answer":"Eat porridge"
    },
    {  
        "Question":"Which award has the words for valour on it",
        "Answer":"Victoria Cross"
    },
    {  
        "Question":"If you had pogonophobia what would you be afraid of",
        "Answer":"Beards"
    },
    {  
        "Question":"Who would take silk as part of their job",
        "Answer":"Barrister"
    },
    {  
        "Question":"Who won an Oscar for the African Queen",
        "Answer":"Bogart"
    },
    {  
        "Question":"Who sang the theme song in 9 to 5",
        "Answer":"Dolly Parton"
    },
    {  
        "Question":"What in business terms is the IMF",
        "Answer":"International Monetary Fund"
    },
    {  
        "Question":"Ringo Star narrates which children's TV series",
        "Answer":"Thomas the tank engine"
    },
    {  
        "Question":"Which country grows the most fruit",
        "Answer":"China"
    },
    {  
        "Question":"Which company is owned by Bill Gates",
        "Answer":"Microsoft"
    },
    {  
        "Question":"What would you do with a maris piper",
        "Answer":"Eat it"
    },
    {  
        "Question":"In Casablanca what is the name of the nightclub",
        "Answer":"Rick's"
    },
    {  
        "Question":"What was the first James Bond book",
        "Answer":"Casino Royal"
    },
    {  
        "Question":"What kind of animal is a lurcher",
        "Answer":"Dog"
    },
    {  
        "Question":"What is the currency of Austria",
        "Answer":"Schilling"
    },
    {  
        "Question":"What is the Islamic equal to the red cross",
        "Answer":"Red Crescent"
    },
    {  
        "Question":"In fable who sold a cow for five beans",
        "Answer":"Jack"
    },
    {  
        "Question":"How did Alfred Nobel make his money",
        "Answer":"Dynamite"
    },
    {  
        "Question":"Who was the first man to run a sub four minute mile",
        "Answer":"Roger Bannister"
    },
    {  
        "Question":"What are Munroes",
        "Answer":"Mountains in Scotland"
    },
    {  
        "Question":"Which car company makes the Celica",
        "Answer":"Toyota"
    },
    {  
        "Question":"Air Lingus is the national airline of which country",
        "Answer":"Republic of Ireland"
    },
    {  
        "Question":"Who discovered radium",
        "Answer":"The Curies"
    },
    {  
        "Question":"What does an alopecia sufferer lack",
        "Answer":"Hair"
    },
    {  
        "Question":"Who painted The Haywain",
        "Answer":"John Constable"
    },
    {  
        "Question":"Triskadeccaphobia is the fear of what",
        "Answer":"Number 13"
    },
    {  
        "Question":"What is a baby rabbit called",
        "Answer":"Kit or Kitten"
    },
    {  
        "Question":"Which country had The Dauphin as a ruler",
        "Answer":"France"
    },
    {  
        "Question":"Who did Michael Caine play in the Ipcress File (both names)",
        "Answer":"Harry Palmer"
    },
    {  
        "Question":"Who won Euro song contest Save All Your Kisses For Me",
        "Answer":"Brotherhood of Man"
    },
    {  
        "Question":"Which country had the guns of Naverone installed",
        "Answer":"Turkey"
    },
    {  
        "Question":"Ictheologists study what",
        "Answer":"Fish"
    },
    {  
        "Question":"What is a Winston Churchill",
        "Answer":"Cigar"
    },
    {  
        "Question":"Who or what lives in a formicarium",
        "Answer":"Ants"
    },
    {  
        "Question":"What type of acid is used in car batteries",
        "Answer":"Sulphuric"
    },
    {  
        "Question":"It’s a flock of sheep what's a group of owls called",
        "Answer":"Parliament"
    },
    {  
        "Question":"What animal would you find in a form",
        "Answer":"Hare"
    },
    {  
        "Question":"Who in books and films was the man of bronze",
        "Answer":"Doc Savage"
    },
    {  
        "Question":"Who was Stan Laurels partner",
        "Answer":"Oliver Hardy"
    },
    {  
        "Question":"What kind of food is Cullan Skink",
        "Answer":"Fish"
    },
    {  
        "Question":"What is classified by the A B O system",
        "Answer":"Blood Groups"
    },
    {  
        "Question":"What plant does the Colorado beetle attack",
        "Answer":"Potato"
    },
    {  
        "Question":"Where did the Pied Piper play",
        "Answer":"Hamlin"
    },
    {  
        "Question":"To where in France do the sick make pilgrimages",
        "Answer":"Lourdes"
    },
    {  
        "Question":"In which city was the famous black hole",
        "Answer":"Calcutta"
    },
    {  
        "Question":"Christopher Cockerel invented what",
        "Answer":"Hovercraft"
    },
    {  
        "Question":"Ray Bolger played who in The Wizard of Oz",
        "Answer":"Scarecrow"
    },
    {  
        "Question":"Sabotage is French - What did the saboteurs use",
        "Answer":"Shoes - sabot means shoe"
    },
    {  
        "Question":"Which part of the human body contains the most gold",
        "Answer":"Toenails"
    },
    {  
        "Question":"If you had rubella what would you have caught",
        "Answer":"German Measles"
    },
    {  
        "Question":"Mohs scale hardest substance is diamond - what's the softest",
        "Answer":"Talc"
    },
    {  
        "Question":"La Giaconda is better known as what",
        "Answer":"Mona Lisa"
    }
]